...................
----------------------------------------------------------------------
Ran 19 tests in 1.211s

OK
Name             Stmts   Miss Branch BrPart  Cover   Missing
------------------------------------------------------------
Collatz.py          45      2     30      3    93%   1081, 1088, 1058->1073, 1080->1081, 1087->1088
TestCollatz.py      78      0      0      0   100%
------------------------------------------------------------
TOTAL              123      2     30      3    97%
